%YAML 1.1
%TAG !u! tag:unity3d.com,2011:
--- !u!114 &11400000
MonoBehaviour:
  m_ObjectHideFlags: 0
  m_CorrespondingSourceObject: {fileID: 0}
  m_PrefabInstance: {fileID: 0}
  m_PrefabAsset: {fileID: 0}
  m_GameObject: {fileID: 0}
  m_Enabled: 1
  m_EditorHideFlags: 0
  m_Script: {fileID: 11500000, guid: 6ec4fe6486f94297a0152a3b4cd66a06, type: 3}
  m_Name: Round 1
  m_EditorClassIdentifier: 
  boosterType: 0
  title: Main round
  timer: 180
  hp: 0
  atk: 0
  atkSpeed: 0
